[
{
"acceleration": 0.7499999999999999,
"curvature": -0.0,
"pose": {
"rotation": {
"radians": 2.971534031997736
},
"translation": {
"x": 6.749634635294116,
"y": 5.969460188235294
}
},
"time": 0.0,
"velocity": 0.0
},
{
"acceleration": 0.7500000000000001,
"curvature": -0.7625500270150788,
"pose": {
"rotation": {
"radians": 2.937308201474083
},
"translation": {
"x": 6.679061622289678,
"y": 5.9824916567283175
}
},
"time": 0.43746565186012126,
"velocity": 0.3280992388950909
},
{
"acceleration": 0.75,
"curvature": -0.6488579675490419,
"pose": {
"rotation": {
"radians": 2.87573741119021
},
"translation": {
"x": 6.598837826447609,
"y": 6.001782605643957
}
},
"time": 0.6414081752983007,
"velocity": 0.4810561314737255
},
{
"acceleration": 0.7499999999999999,
"curvature": -0.34540570170599605,
"pose": {
"rotation": {
"radians": 2.8266511696679437
},
"translation": {
"x": 6.50270609837036,
"y": 6.030779858176108
}
},
"time": 0.8241141937273749,
"velocity": 0.6180856452955311
},
{
"acceleration": 0.7500000000000002,
"curvature": -0.12872746598224657,
"pose": {
"rotation": {
"radians": 2.7992460761954625
},
"translation": {
"x": 6.387639835110293,
"y": 6.070298806893382
}
},
"time": 1.0017984029192306,
"velocity": 0.7513488021894229
},
{
"acceleration": 0.75,
"curvature": -0.05433173520116677,
"pose": {
"rotation": {
"radians": 2.79307583007545
},
"translation": {
"x": 6.322816128554635,
"y": 6.093657472031898
}
},
"time": 1.0896529873371068,
"velocity": 0.81723974050283
},
{
"acceleration": 0.7500000000000007,
"curvature": 0.004713009663639271,
"pose": {
"rotation": {
"radians": 2.7913428343515814
},
"translation": {
"x": 6.253324221136473,
"y": 6.1190040287257474
}
},
"time": 1.1766890781540276,
"velocity": 0.8825168086155205
},
{
"acceleration": 0.7500000000000007,
"curvature": 0.05338923861279204,
"pose": {
"rotation": {
"radians": 2.7936979677808056
},
"translation": {
"x": 6.179463368794417,
"y": 6.145914335043882
}
},
"time": 1.2626261667584526,
"velocity": 0.9469696250688394
},
{
"acceleration": 0.75,
"curvature": 0.09571647281886426,
"pose": {
"rotation": {
"radians": 2.799908763673097
},
"translation": {
"x": 6.101637469301469,
"y": 6.173889899951171
}
},
"time": 1.3471308779003364,
"velocity": 1.0103481584252523
},
{
"acceleration": 0.7500000000000007,
"curvature": 0.134897687280604,
"pose": {
"rotation": {
"radians": 2.8098644261954027
},
"translation": {
"x": 6.020338851045237,
"y": 6.202372902526735
}
},
"time": 1.429852539920259,
"velocity": 1.0723894049401943
},
{
"acceleration": 0.7500000000000009,
"curvature": 0.17356550335110865,
"pose": {
"rotation": {
"radians": 2.823572576804187
},
"translation": {
"x": 5.936132061808147,
"y": 6.230761211182268
}
},
"time": 1.5104459559724008,
"velocity": 1.1328344669793007
},
{
"acceleration": 0.7500000000000009,
"curvature": 0.2140153015255254,
"pose": {
"rotation": {
"radians": 2.8411544505243183
},
"translation": {
"x": 5.849637657547657,
"y": 6.258423402880385
}
},
"time": 1.5885865791554756,
"velocity": 1.191439934366607
},
{
"acceleration": 0.7500000000000006,
"curvature": 0.2583936332513935,
"pose": {
"rotation": {
"radians": 2.8628407398022344
},
"translation": {
"x": 5.761515991176468,
"y": 6.284713782352941
}
},
"time": 1.6639812375598548,
"velocity": 1.2479859281698913
},
{
"acceleration": 0.7500000000000012,
"curvature": 0.30883277471490256,
"pose": {
"rotation": {
"radians": 2.888967701780832
},
"translation": {
"x": 5.672451001342737,
"y": 6.308987401319371
}
},
"time": 1.7363763629023643,
"velocity": 1.3022822721767735
},
{
"acceleration": -0.33683923302841406,
"curvature": 0.36751800128623874,
"pose": {
"rotation": {
"radians": 2.919971173755966
},
"translation": {
"x": 5.583134001210288,
"y": 6.330615077705023
}
},
"time": 1.8055649516167809,
"velocity": 1.354173713712586
},
{
"acceleration": -0.4055710074395956,
"curvature": 0.4366541856862598,
"pose": {
"rotation": {
"radians": 2.9563739579887707
},
"translation": {
"x": 5.494247467238827,
"y": 6.348998414859487
}
},
"time": 1.873161290902952,
"velocity": 1.3314046146319036
},
{
"acceleration": -0.45543289720763847,
"curvature": 0.5182653689021334,
"pose": {
"rotation": {
"radians": 2.9987591228914483
},
"translation": {
"x": 5.406448827964152,
"y": 6.36358482077493
}
},
"time": 1.9407043704217013,
"velocity": 1.3040110998259118
},
{
"acceleration": -0.4982793516683826,
"curvature": 0.6137194789279797,
"pose": {
"rotation": {
"radians": 3.0477179789273103
},
"translation": {
"x": 5.320354252778364,
"y": 6.373882527304426
}
},
"time": 2.007988416922454,
"velocity": 1.2733677315922205
},
{
"acceleration": -0.5215416686961932,
"curvature": 0.722840677725382,
"pose": {
"rotation": {
"radians": 3.103757520424378
},
"translation": {
"x": 5.236522440710086,
"y": 6.379475609380294
}
},
"time": 2.0748440112477886,
"velocity": 1.2400549693963883
},
{
"acceleration": -0.5089126004250003,
"curvature": 0.8425116645454418,
"pose": {
"rotation": {
"radians": -3.1160348135584877
},
"translation": {
"x": 5.1554384092046694,
"y": 6.380039004232424
}
},
"time": 2.1411577917895555,
"velocity": 1.2054695696350821
},
{
"acceleration": -0.4426171317896214,
"curvature": 0.9648870911982866,
"pose": {
"rotation": {
"radians": -3.0454678494966365
},
"translation": {
"x": 5.077497282904408,
"y": 6.375353530606614
}
},
"time": 2.206841445521922,
"velocity": 1.1720423306087282
},
{
"acceleration": -0.3069018324888959,
"curvature": 1.0758417715069952,
"pose": {
"rotation": {
"radians": -2.968633020009156
},
"translation": {
"x": 5.0029880824287485,
"y": 6.365320907982904
}
},
"time": 2.271783618414897,
"velocity": 1.1432978123106539
},
{
"acceleration": -0.0903871494186401,
"curvature": 1.1549339966955063,
"pose": {
"rotation": {
"radians": -2.887440374179931
},
"translation": {
"x": 4.932077513154507,
"y": 6.349978775793901
}
},
"time": 2.3357914198901204,
"velocity": 1.1236537007443224
},
{
"acceleration": 0.2161558132495803,
"curvature": 1.1782856446158898,
"pose": {
"rotation": {
"radians": -2.804981241899444
},
"translation": {
"x": 4.86479375399608,
"y": 6.329515712643123
}
},
"time": 2.3985372674851733,
"velocity": 1.117982282442349
},
{
"acceleration": 0.6298094552908869,
"curvature": 1.12436140993055,
"pose": {
"rotation": {
"radians": -2.72549156154885
},
"translation": {
"x": 4.8010102461856565,
"y": 6.3042862555233175
}
},
"time": 2.4595310039927765,
"velocity": 1.1311664331602806
},
{
"acceleration": 0.7499999999999983,
"curvature": 0.9798899578495485,
"pose": {
"rotation": {
"radians": -2.6540622174720685
},
"translation": {
"x": 4.7404294820534245,
"y": 6.274825919034808
}
},
"time": 2.518128019286042,
"velocity": 1.168071387443804
},
{
"acceleration": 0.7500000000000017,
"curvature": 0.7417980649927273,
"pose": {
"rotation": {
"radians": -2.596204368286977
},
"translation": {
"x": 4.682566793807797,
"y": 6.24186621460382
}
},
"time": 2.5741309441992204,
"velocity": 1.2100735811286876
},
{
"acceleration": 0.6203269743582946,
"curvature": 0.41363738764527047,
"pose": {
"rotation": {
"radians": -2.557482627845034
},
"translation": {
"x": 4.626734142315611,
"y": 6.2063496697008125
}
},
"time": 2.627918506477772,
"velocity": 1.2504142528376012
},
{
"acceleration": -0.7500000000000017,
"curvature": 1.3848447356297252e-15,
"pose": {
"rotation": {
"radians": -2.543371427631902
},
"translation": {
"x": 4.572023905882344,
"y": 6.169444847058815
}
},
"time": 2.680022609520979,
"velocity": 1.2827358334300467
},
{
"acceleration": -0.7490329568369852,
"curvature": 0.7134134416250341,
"pose": {
"rotation": {
"radians": -2.516436470282872
},
"translation": {
"x": 4.516908034333962,
"y": 6.131115318120035
}
},
"time": 2.7331850610283825,
"velocity": 1.242863994799494
},
{
"acceleration": 0.708104301369195,
"curvature": 0.8708223675503964,
"pose": {
"rotation": {
"radians": -2.45472781845893
},
"translation": {
"x": 4.45839356465943,
"y": 6.086160065649369
}
},
"time": 2.7936577046094855,
"velocity": 1.1975679917701914
},
{
"acceleration": 0.7499999999999979,
"curvature": 0.6979371864669597,
"pose": {
"rotation": {
"radians": -2.386193398123291
},
"translation": {
"x": 4.393716168004582,
"y": 6.0291561882942375
}
},
"time": 2.864177184798311,
"velocity": 1.2475031390222184
},
{
"acceleration": 0.7375653510323871,
"curvature": 0.4769111904123271,
"pose": {
"rotation": {
"radians": -2.326080333816127
},
"translation": {
"x": 4.3207604252139795,
"y": 5.955912440072093
}
},
"time": 2.945078365366951,
"velocity": 1.3081790244486982
},
{
"acceleration": 0.44376333089937003,
"curvature": 0.30968326582701683,
"pose": {
"rotation": {
"radians": -2.278230081511322
},
"translation": {
"x": 4.238012504373157,
"y": 5.863380664662321
}
},
"time": 3.0375583404927102,
"velocity": 1.3763890497657953
},
{
"acceleration": 0.33904082810394287,
"curvature": 0.24899360460330064,
"pose": {
"rotation": {
"radians": -2.2586053540092426
},
"translation": {
"x": 4.192646255460755,
"y": 5.809219986024088
}
},
"time": 3.088470721150731,
"velocity": 1.3989820973906153
},
{
"acceleration": 0.2565412034487685,
"curvature": 0.20085688569108134,
"pose": {
"rotation": {
"radians": -2.2414612772690887
},
"translation": {
"x": 4.144512838350854,
"y": 5.749567229698137
}
},
"time": 3.1429018046029245,
"velocity": 1.4174364569988418
},
{
"acceleration": 0.19351085052167338,
"curvature": 0.1628884533570755,
"pose": {
"rotation": {
"radians": -2.2264883742952657
},
"translation": {
"x": 4.093571147183699,
"y": 5.684323430694917
}
},
"time": 3.2009945480943625,
"velocity": 1.432339639325776
},
{
"acceleration": 0.1461801716851873,
"curvature": 0.1329630601535719,
"pose": {
"rotation": {
"radians": -2.213396558158063
},
"translation": {
"x": 4.039808802341261,
"y": 5.613444461058483
}
},
"time": 3.262845624027773,
"velocity": 1.4443084936353308
},
{
"acceleration": 0.11093997802722136,
"curvature": 0.10932104350869545,
"pose": {
"rotation": {
"radians": -2.2019259787061922
},
"translation": {
"x": 3.983240671620438,
"y": 5.536938262188112
}
},
"time": 3.3285053820213846,
"velocity": 1.4539066483316447
},
{
"acceleration": 0.08477102391853339,
"curvature": 0.09056095768566878,
"pose": {
"rotation": {
"radians": -2.1918499153421402
},
"translation": {
"x": 3.9239073914062477,
"y": 5.454862077159927
}
},
"time": 3.3979794502069596,
"velocity": 1.461614099929614
},
{
"acceleration": 0.06531281823477583,
"curvature": 0.0755899204969921,
"pose": {
"rotation": {
"radians": -2.182973614974457
},
"translation": {
"x": 3.8618738878450234,
"y": 5.367319683048512
}
},
"time": 3.471231170030116,
"velocity": 1.4678237232228166
},
{
"acceleration": 0.05078731155638118,
"curvature": 0.06356488978246995,
"pose": {
"rotation": {
"radians": -2.175131303853565
},
"translation": {
"x": 3.7972278980176077,
"y": 5.274458623248548
}
},
"time": 3.5481844009946206,
"velocity": 1.47284975560938
},
{
"acceleration": 0.039882614973230965,
"curvature": 0.05383854320616946,
"pose": {
"rotation": {
"radians": -2.168182584873408
},
"translation": {
"x": 3.7300784911125486,
"y": 5.1764674397964185
}
},
"time": 3.628726442670868,
"velocity": 1.4769402693733786
},
{
"acceleration": 0.03344670200144971,
"curvature": 0.04591414366554165,
"pose": {
"rotation": {
"radians": -2.1620088401380753
},
"translation": {
"x": 3.6605545895992933,
"y": 5.073572905691843
}
},
"time": 3.712710944984811,
"velocity": 1.480289790942884
},
{
"acceleration": 0.029869773168973778,
"curvature": 0.042504633512084666,
"pose": {
"rotation": {
"radians": -2.1591806490606853
},
"translation": {
"x": 3.624947556337756,
"y": 5.020367521377985
}
},
"time": 3.7559387208072628,
"velocity": 1.481735617479003
},
{
"acceleration": 0.026745781656861714,
"curvature": 0.039409732832378946,
"pose": {
"rotation": {
"radians": -2.156509926892434
},
"translation": {
"x": 3.588803490401384,
"y": 4.966037257219493
}
},
"time": 3.799958532929107,
"velocity": 1.4830504792820234
},
{
"acceleration": 0.024012302063831294,
"curvature": 0.036595099467695714,
"pose": {
"rotation": {
"radians": -2.153986566515179
},
"translation": {
"x": 3.552143432294049,
"y": 4.910619979817991
}
},
"time": 3.844743861892729,
"velocity": 1.4842482979119151
},
{
"acceleration": 0.021616108156490017,
"curvature": 0.034030481946781536,
"pose": {
"rotation": {
"radians": -2.1516012759508745
},
"translation": {
"x": 3.5149893860696535,
"y": 4.854155426270616
}
},
"time": 3.8902666017147283,
"velocity": 1.4853414036912942
},
{
"acceleration": 0.019511780988481362,
"curvature": 0.031689192781882175,
"pose": {
"rotation": {
"radians": -2.1493455103517856
},
"translation": {
"x": 3.477364273118793,
"y": 4.796685117680066
}
},
"time": 3.936497140498713,
"velocity": 1.4863407280177816
},
{
"acceleration": 0.017660526660174054,
"curvature": 0.029547651245629546,
"pose": {
"rotation": {
"radians": -2.1472114098332065
},
"translation": {
"x": 3.4392918859554173,
"y": 4.738252272664655
}
},
"time": 3.983404439740918,
"velocity": 1.4872559729673567
},
{
"acceleration": 0.016029174637375968,
"curvature": 0.027584986557061906,
"pose": {
"rotation": {
"radians": -2.1451917427713925
},
"translation": {
"x": 3.400796842003495,
"y": 4.678901720868361
}
},
"time": 4.030956112416693,
"velocity": 1.488095760550383
},
{
"acceleration": 0.014589330546768378,
"curvature": 0.025782693444208027,
"pose": {
"rotation": {
"radians": -2.1432798541793967
},
"translation": {
"x": 3.3619045373836722,
"y": 4.618679816470875
}
},
"time": 4.079118499936715,
"velocity": 1.4888677638708945
},
{
"acceleration": 0.013316660486261114,
"curvature": 0.02412433302499075,
"pose": {
"rotation": {
"radians": -2.1414696187769824
},
"translation": {
"x": 3.322641100699939,
"y": 4.557634351697657
}
},
"time": 4.127856748060199,
"velocity": 1.4895788222830384
},
{
"acceleration": 0.012190286904870628,
"curvature": 0.02259527283922742,
"pose": {
"rotation": {
"radians": -2.1397553983833806
},
"translation": {
"x": 3.2830333468262882,
"y": 4.49581447032998
}
},
"time": 4.177134881849009,
"velocity": 1.4902350424601005
},
{
"acceleration": 0.011192278901334115,
"curvature": 0.021182460665171307,
"pose": {
"rotation": {
"radians": -2.138132003280095
},
"translation": {
"x": 3.243108730693381,
"y": 4.433270581214985
}
},
"time": 4.226915879742028,
"velocity": 1.4908418871068272
},
{
"acceleration": 0.010307222304956464,
"curvature": 0.019874227464261814,
"pose": {
"rotation": {
"radians": -2.1365946572128793
},
"translation": {
"x": 3.2028953010752055,
"y": 4.370054271775732
}
},
"time": 4.277161746823734,
"velocity": 1.491404252864845
},
{
"acceleration": 0.009521857122795671,
"curvature": 0.018660115421650844,
"pose": {
"rotation": {
"radians": -2.1351389657258535
},
"translation": {
"x": 3.162421654375743,
"y": 4.3062182215212506
}
},
"time": 4.327833587355937,
"velocity": 1.4919265387898117
},
{
"acceleration": 0.008824771870019807,
"curvature": 0.017530727594005688,
"pose": {
"rotation": {
"radians": -2.1337608875451783
},
"translation": {
"x": 3.1217168884156283,
"y": 4.241816115556585
}
},
"time": 4.378891676635531,
"velocity": 1.492412706620895
},
{
"acceleration": 0.008206145967802158,
"curvature": 0.016477596147400485,
"pose": {
"rotation": {
"radians": -2.132456708754159
},
"translation": {
"x": 3.0808105562188106,
"y": 4.176902558092853
}
},
"time": 4.4302955322360935,
"velocity": 1.4928663339198094
},
{
"acceleration": 0.007657532820633925,
"curvature": 0.0154930665744256,
"pose": {
"rotation": {
"radians": -2.1312230195254216
},
"translation": {
"x": 3.03973261979922,
"y": 4.111532985957292
}
},
"time": 4.482003984685541,
"velocity": 1.4932906610283787
},
{
"acceleration": 0.007171677403576944,
"curvature": 0.01457019562830093,
"pose": {
"rotation": {
"radians": -2.13005669319869
},
"translation": {
"x": 2.998513403947424,
"y": 4.0457635821033096
}
},
"time": 4.533975247627138,
"velocity": 1.4936886326800838
},
{
"acceleration": 0.006742363226372821,
"curvature": 0.01370266100965234,
"pose": {
"rotation": {
"radians": -2.1289548675144454
},
"translation": {
"x": 2.957183550017297,
"y": 3.9796511891205366
}
},
"time": 4.58616698750649,
"velocity": 1.49406293500163
},
{
"acceleration": 0.006364284424594165,
"curvature": 0.012884681094862394,
"pose": {
"rotation": {
"radians": -2.1279149278343423
},
"translation": {
"x": 2.915773969712676,
"y": 3.913253222744875
}
},
"time": 4.638536392822309,
"velocity": 1.4944160285542183
},
{
"acceleration": 0.006032939481760644,
"curvature": 0.012110943209032622,
"pose": {
"rotation": {
"radians": -2.1269344921986537
},
"translation": {
"x": 2.874315798874027,
"y": 3.8466275853685508
}
},
"time": 4.691040242974799,
"velocity": 1.494750177989975
},
{
"acceleration": 0.00574454373296369,
"curvature": 0.011376539126334686,
"pose": {
"rotation": {
"radians": -2.126011398089303
},
"translation": {
"x": 2.8328403512651064,
"y": 3.779832579550164
}
},
"time": 4.743634976741512,
"velocity": 1.495067478835849
},
{
"acceleration": 0.005495958361594788,
"curvature": 0.010676906629933898,
"pose": {
"rotation": {
"radians": -2.12514369078428
},
"translation": {
"x": 2.7913790723596215,
"y": 3.7129268215247384
}
},
"time": 4.796276760406677,
"velocity": 1.4953698818642946
},
{
"acceleration": 0.005284634092532013,
"curvature": 0.010007776086091298,
"pose": {
"rotation": {
"radians": -2.124329613205602
},
"translation": {
"x": 2.749963493127895,
"y": 3.6459691547137734
}
},
"time": 4.848921555566648,
"velocity": 1.4956592154664485
},
{
"acceleration": 0.005108568225540171,
"curvature": 0.009365121085241322,
"pose": {
"rotation": {
"radians": -2.1235675971785186
},
"translation": {
"x": 2.708625183823528,
"y": 3.5790185632352944
}
},
"time": 4.901525186630436,
"velocity": 1.4959372064085592
},
{
"acceleration": 0.004966274057025912,
"curvature": 0.008745112278883395,
"pose": {
"rotation": {
"radians": -2.122856256034628
},
"translation": {
"x": 2.6673957077700594,
"y": 3.512134085413904
}
},
"time": 4.954043408031984,
"velocity": 1.496205499325673
},
{
"acceleration": 0.004856762120428162,
"curvature": 0.008144073596580809,
"pose": {
"rotation": {
"radians": -2.122194378506091
},
"translation": {
"x": 2.626306575147631,
"y": 3.4453747272908304
}
},
"time": 5.006431971166543,
"velocity": 1.496465675287653
},
{
"acceleration": 0.004779533052176896,
"curvature": 0.007558440063137243,
"pose": {
"rotation": {
"radians": -2.121580923872348
},
"translation": {
"x": 2.5853891967796483,
"y": 3.3787993761339816
}
},
"time": 5.058646691061625,
"velocity": 1.4967192697613683
},
{
"acceleration": 0.004734582274860641,
"curvature": 0.0069847164525041125,
"pose": {
"rotation": {
"radians": -2.1210150183349556
},
"translation": {
"x": 2.5446748379194433,
"y": 3.312466713947991
}
},
"time": 5.110643512789765,
"velocity": 1.496967790289426
},
{
"acceleration": 0.0047224171003008115,
"curvature": 0.006419436011908594,
"pose": {
"rotation": {
"radians": -2.1204959526104608
},
"translation": {
"x": 2.504194572036935,
"y": 3.246435130984276
}
},
"time": 5.162378577626612,
"velocity": 1.4972127342103914
},
{
"acceleration": 0.004744087312164245,
"curvature": 0.005859118466147423,
"pose": {
"rotation": {
"radians": -2.120023180745963
},
"translation": {
"x": 2.463979234605299,
"y": 3.180762639251082
}
},
"time": 5.213808288956533,
"velocity": 1.4974556067586393
},
{
"acceleration": 0.004801230812443464,
"curvature": 0.00530022646634207,
"pose": {
"rotation": {
"radians": -2.1195963201773216
},
"translation": {
"x": 2.424059376887618,
"y": 3.1155067860235333
}
},
"time": 5.264889377922841,
"velocity": 1.497697939904696
},
{
"acceleration": 0.004896136538621247,
"curvature": 0.004739119577166901,
"pose": {
"rotation": {
"radians": -2.119215153066279
},
"translation": {
"x": 2.3844652197235545,
"y": 3.0507245673536865
}
},
"time": 5.31557896881834,
"velocity": 1.4979413123303735
},
{
"acceleration": 0.005031827613154557,
"curvature": 0.0041720047981721586,
"pose": {
"rotation": {
"radians": -2.118879628970205
},
"translation": {
"x": 2.3452266073160075,
"y": 2.9864723415805834
}
},
"time": 5.365834644207053,
"velocity": 1.4981873709789173
},
{
"acceleration": 0.0052121686195736715,
"curvature": 0.0035948824835732203,
"pose": {
"rotation": {
"radians": -2.118589868917338
},
"translation": {
"x": 2.306372961017777,
"y": 2.9228057428402927
}
},
"time": 5.415614509764906,
"velocity": 1.4984378546810104
},
{
"acceleration": 0.0054420020703398455,
"curvature": 0.0030034863545996657,
"pose": {
"rotation": {
"radians": -2.11834617098151
},
"translation": {
"x": 2.267933233118226,
"y": 2.8597795945759685
}
},
"time": 5.464877258822915,
"velocity": 1.4986946204357645
},
{
"acceleration": 0.005727320616447698,
"curvature": 0.002393216081106964,
"pose": {
"rotation": {
"radians": -2.118149017473993
},
"translation": {
"x": 2.2299358606299435,
"y": 2.7974478230479045
}
},
"time": 5.513582236591937,
"velocity": 1.4989596730256194
},
{
"acceleration": 0.006075483452256992,
"curvature": 0.0017590606342883135,
"pose": {
"rotation": {
"radians": -2.1179990838969207
},
"translation": {
"x": 2.1924087190754036,
"y": 2.735863370843572
}
},
"time": 5.561689504042175,
"velocity": 1.499235198770288
},
{
"acceleration": 0.00649548782680642,
"curvature": 0.0010955102666220784,
"pose": {
"rotation": {
"radians": -2.1178972498332147
},
"translation": {
"x": 2.1553790762736327,
"y": 2.6750781103876795
}
},
"time": 5.609159901405831,
"velocity": 1.499523604383943
},
{
"acceleration": 0.00048615299257869567,
"curvature": 0.00039645454154427185,
"pose": {
"rotation": {
"radians": -2.1178446119831404
},
"translation": {
"x": 2.1188735461268697,
"y": 2.6151427574522224
}
},
"time": 5.6559551112635695,
"velocity": 1.4998275620999268
},
{
"acceleration": -0.007587547788328251,
"curvature": -0.00034493670824432496,
"pose": {
"rotation": {
"radians": -2.117842499598276
},
"translation": {
"x": 2.0829180424072256,
"y": 2.556106784666534
}
},
"time": 5.702042331382942,
"velocity": 1.4998499675399075
},
{
"acceleration": -0.3872188881180967,
"curvature": -0.0011363532966663064,
"pose": {
"rotation": {
"radians": -2.1178924926110856
},
"translation": {
"x": 2.0475377325433506,
"y": 2.498018335027333
}
},
"time": 5.74739537427317,
"velocity": 1.4995058491596318
},
{
"acceleration": -0.7500000000000033,
"curvature": -0.001986510133504331,
"pose": {
"rotation": {
"radians": -2.117996442813795
},
"translation": {
"x": 2.0127569914070915,
"y": 2.440924135408779
}
},
"time": 5.7922389913641155,
"velocity": 1.4821415536104823
},
{
"acceleration": -0.75,
"curvature": -0.002905343944001072,
"pose": {
"rotation": {
"radians": -2.118156498505533
},
"translation": {
"x": 1.9785993551001617,
"y": 2.384869410072519
}
},
"time": 5.8370353534241906,
"velocity": 1.4485442820654257
},
{
"acceleration": -0.7500000000000018,
"curvature": -0.0039042483561670584,
"pose": {
"rotation": {
"radians": -2.1183751331038048
},
"translation": {
"x": 1.9450874747407925,
"y": 2.329897794177734
}
},
"time": 5.882004233793457,
"velocity": 1.4148176217884763
},
{
"acceleration": -0.75,
"curvature": -0.006196879848820094,
"pose": {
"rotation": {
"radians": -2.1189998625087183
},
"translation": {
"x": 1.8800868841402694,
"y": 2.223369966897349
}
},
"time": 5.97237297567374,
"velocity": 1.3470410653782634
},
{
"acceleration": -0.75,
"curvature": -0.008996986816327216,
"pose": {
"rotation": {
"radians": -2.1198983188875546
},
"translation": {
"x": 1.817916972775044,
"y": 2.121654666173826
}
},
"time": 6.063165728119242,
"velocity": 1.2789465010441368
},
{
"acceleration": -0.749999999999999,
"curvature": -0.012485949593105325,
"pose": {
"rotation": {
"radians": -2.1211061394852924
},
"translation": {
"x": 1.75872237642541,
"y": 2.025034943617243
}
},
"time": 6.154192317817883,
"velocity": 1.2106765587701558
},
{
"acceleration": -0.7499999999999989,
"curvature": -0.016916299525880956,
"pose": {
"rotation": {
"radians": -2.12266900124144
},
"translation": {
"x": 1.7026291346556306,
"y": 1.9337601221631822
}
},
"time": 6.2452510641257,
"velocity": 1.142382499039293
},
{
"acceleration": -0.75,
"curvature": -0.022645723278299074,
"pose": {
"rotation": {
"radians": -2.1246454473398493
},
"translation": {
"x": 1.64974321198713,
"y": 1.8480430283943363
}
},
"time": 6.3361278879978995,
"velocity": 1.0742248811351431
},
{
"acceleration": -0.75,
"curvature": -0.030189681313494133,
"pose": {
"rotation": {
"radians": -2.1271107346878058
},
"translation": {
"x": 1.60014901907169,
"y": 1.7680572248621376
}
},
"time": 6.4265953841444965,
"velocity": 1.0063742590251954
},
{
"acceleration": -0.7500000000000007,
"curvature": -0.04030424760649014,
"pose": {
"rotation": {
"radians": -2.1301621103174306
},
"translation": {
"x": 1.5539079338646484,
"y": 1.6939342424083845
}
},
"time": 6.516411918836835,
"velocity": 0.9390118580059419
},
{
"acceleration": -0.7499999999999992,
"curvature": -0.05411880508971455,
"pose": {
"rotation": {
"radians": -2.133926102186929
},
"translation": {
"x": 1.5110568227980847,
"y": 1.6257608124868632
}
},
"time": 6.605320870714848,
"velocity": 0.8723301440974319
},
{
"acceleration": -0.75,
"curvature": -0.07335222317254368,
"pose": {
"rotation": {
"radians": -2.1385686608450287
},
"translation": {
"x": 1.4716065619540268,
"y": 1.5635760994849637
}
},
"time": 6.693050227486879,
"velocity": 0.8065331265184088
},
{
"acceleration": -0.7499999999999998,
"curvature": -0.10067055711399135,
"pose": {
"rotation": {
"radians": -2.1443093287544377
},
"translation": {
"x": 1.4355405582376366,
"y": 1.5073689330452957
}
},
"time": 6.779312917606451,
"velocity": 0.7418361089287294
},
{
"acceleration": -0.7500000000000003,
"curvature": -0.1989686951924929,
"pose": {
"rotation": {
"radians": -2.1603574670945673
},
"translation": {
"x": 1.3733487309633703,
"y": 1.4125742786289797
}
},
"time": 6.946226259731952,
"velocity": 0.6166511023346039
},
{
"acceleration": -0.75,
"curvature": -0.42457703351280346,
"pose": {
"rotation": {
"radians": -2.1858538895443873
},
"translation": {
"x": 1.3237430172607438,
"y": 1.3401756197050307
}
},
"time": 7.103610932940512,
"velocity": 0.4986125974281836
},
{
"acceleration": -0.7500000000000001,
"curvature": -0.9732488985680464,
"pose": {
"rotation": {
"radians": -2.2275195971738775
},
"translation": {
"x": 1.285450941669895,
"y": 1.2879892394079677
}
},
"time": 7.249415558724675,
"velocity": 0.38925912809006114
},
{
"acceleration": -0.7499999999999996,
"curvature": -2.207531231945195,
"pose": {
"rotation": {
"radians": -2.295036697548783
},
"translation": {
"x": 1.2566185545278659,
"y": 1.2527603678316552
}
},
"time": 7.383748772083257,
"velocity": 0.28850921807112534
},
{
"acceleration": -0.75,
"curvature": -3.0300238179321703,
"pose": {
"rotation": {
"radians": -2.3397570209052363
},
"translation": {
"x": 1.244999742241994,
"y": 1.2401732206850742
}
},
"time": 7.448586834333276,
"velocity": 0.23988067138361058
},
{
"acceleration": -0.75,
"curvature": -3.4561116897632767,
"pose": {
"rotation": {
"radians": -2.3872845445322275
},
"translation": {
"x": 1.2347631095108653,
"y": 1.2300746163211684
}
},
"time": 7.51553877336532,
"velocity": 0.18966671710957797
},
{
"acceleration": -0.75,
"curvature": -1.6125406067152889e-13,
"pose": {
"rotation": {
"radians": -2.4429328288683703
},
"translation": {
"x": 1.216725741176476,
"y": 1.2142694117647208
}
},
"time": 7.768427729511424,
"velocity": 0.0
}
]