[
{
"acceleration": 0.7500000000000001,
"curvature": 0.0,
"pose": {
"rotation": {
"radians": -1.54050256687612
},
"translation": {
"x": 7.879600552809969,
"y": 2.1442550028427716
}
},
"time": 0.0,
"velocity": 0.0
},
{
"acceleration": 0.75,
"curvature": -0.08710353060751962,
"pose": {
"rotation": {
"radians": -1.5446480149429422
},
"translation": {
"x": 7.881532541212504,
"y": 2.077156287516212
}
},
"time": 0.42308871773327317,
"velocity": 0.31731653829995493
},
{
"acceleration": 0.7500000000000001,
"curvature": -0.07456541061973854,
"pose": {
"rotation": {
"radians": -1.5498671516554061
},
"translation": {
"x": 7.883053488979259,
"y": 2.012361985026227
}
},
"time": 0.5931580444876293,
"velocity": 0.4448685333657221
},
{
"acceleration": 0.7500000000000006,
"curvature": -0.06609565393568881,
"pose": {
"rotation": {
"radians": -1.5563455177944279
},
"translation": {
"x": 7.884695067308823,
"y": 1.919234450094196
}
},
"time": 0.774735527659038,
"velocity": 0.5810516457442786
},
{
"acceleration": 0.7499999999999996,
"curvature": -0.06391579649508952,
"pose": {
"rotation": {
"radians": -1.5641920204752533
},
"translation": {
"x": 7.885973515947636,
"y": 1.7975553759615766
}
},
"time": 0.9616187280250585,
"velocity": 0.7212140460187941
},
{
"acceleration": 0.7500000000000003,
"curvature": -0.06491828520169023,
"pose": {
"rotation": {
"radians": -1.5687372533654778
},
"translation": {
"x": 7.8862800773893404,
"y": 1.726880874335409
}
},
"time": 1.0550723618593116,
"velocity": 0.7913042713944839
},
{
"acceleration": 0.749999999999999,
"curvature": -0.06728824408118829,
"pose": {
"rotation": {
"radians": -1.5737808673476794
},
"translation": {
"x": 7.8862458710640455,
"y": 1.650463630402884
}
},
"time": 1.1475874809043074,
"velocity": 0.8606906106782307
},
{
"acceleration": 0.7499999999999983,
"curvature": -0.07111340206777599,
"pose": {
"rotation": {
"radians": -1.5794033081559895
},
"translation": {
"x": 7.8857763425500025,
"y": 1.5690879246104608
}
},
"time": 1.2385324059462943,
"velocity": 0.9288993044597208
},
{
"acceleration": 0.7499999999999978,
"curvature": -0.07657948527120921,
"pose": {
"rotation": {
"radians": -1.585702318134497
},
"translation": {
"x": 7.88477513319519,
"y": 1.4836468043968072
}
},
"time": 1.3273361105366548,
"velocity": 0.995502082902491
},
{
"acceleration": 0.7500000000000009,
"curvature": -0.08398804335455266,
"pose": {
"rotation": {
"radians": -1.592796891664091
},
"translation": {
"x": 7.883146116615659,
"y": 1.3951168200887656
}
},
"time": 1.4134854339203906,
"velocity": 1.0601140754402927
},
{
"acceleration": 0.7500000000000003,
"curvature": -0.09378667726839365,
"pose": {
"rotation": {
"radians": -1.6008324977021757
},
"translation": {
"x": 7.880795435193868,
"y": 1.304532760797331
}
},
"time": 1.4965225972586025,
"velocity": 1.1223919479439517
},
{
"acceleration": 0.7499999999999994,
"curvature": -0.10661628138671718,
"pose": {
"rotation": {
"radians": -1.6099878224170847
},
"translation": {
"x": 7.8776335365770205,
"y": 1.2129623903136233
}
},
"time": 1.5760434854297944,
"velocity": 1.1820326140723456
},
{
"acceleration": 0.6890577397959076,
"curvature": -0.1233816027833408,
"pose": {
"rotation": {
"radians": -1.6204833483796595
},
"translation": {
"x": 7.873577210175414,
"y": 1.1214811830048568
}
},
"time": 1.6516968999542294,
"velocity": 1.2387726749656718
},
{
"acceleration": -0.7500000000000019,
"curvature": -0.1453536249709782,
"pose": {
"rotation": {
"radians": -1.6325920798818365
},
"translation": {
"x": 7.86855162366077,
"y": 1.0311470597103138
}
},
"time": 1.723305780278601,
"velocity": 1.288115328191299
},
{
"acceleration": -0.75,
"curvature": -0.17431388115746524,
"pose": {
"rotation": {
"radians": -1.6466525569339439
},
"translation": {
"x": 7.86249235946458,
"y": 0.9429751236373187
}
},
"time": 1.7933456938605115,
"velocity": 1.235585393004866
},
{
"acceleration": -0.7500000000000013,
"curvature": -0.21274871427804307,
"pose": {
"rotation": {
"radians": -1.6630837658708024
},
"translation": {
"x": 7.855347451276444,
"y": 0.857912396257209
}
},
"time": 1.8639449135758204,
"velocity": 1.1826359782183842
},
{
"acceleration": -0.7499999999999979,
"curvature": -0.26408727473242305,
"pose": {
"rotation": {
"radians": -1.682400208840182
},
"translation": {
"x": 7.847079420542408,
"y": 0.7768125532013084
}
},
"time": 1.9344521883552626,
"velocity": 1.1297555221338025
},
{
"acceleration": -0.7500000000000008,
"curvature": -0.33292911164629424,
"pose": {
"rotation": {
"radians": -1.7052223339177115
},
"translation": {
"x": 7.8376673129633065,
"y": 0.7004106601568978
}
},
"time": 2.004205352573868,
"velocity": 1.0774406489698485
},
{
"acceleration": -0.7499999999999991,
"curvature": -0.4250749346832718,
"pose": {
"rotation": {
"radians": -1.7322710173588811
},
"translation": {
"x": 7.827108734993102,
"y": 0.6292979087631903
}
},
"time": 2.072556479721097,
"velocity": 1.0261773036094268
},
{
"acceleration": -0.75,
"curvature": -0.5468527797912051,
"pose": {
"rotation": {
"radians": -1.7643218449591578
},
"translation": {
"x": 7.815421890337224,
"y": 0.5638963525073049
}
},
"time": 2.1389080575889734,
"velocity": 0.9764136202085195
},
{
"acceleration": -0.75,
"curvature": -0.7025571236530288,
"pose": {
"rotation": {
"radians": -1.8020716062586786
},
"translation": {
"x": 7.802647616450911,
"y": 0.504433642620226
}
},
"time": 2.2027625488131632,
"velocity": 0.9285227517903771
},
{
"acceleration": -0.75,
"curvature": -0.8877357466329046,
"pose": {
"rotation": {
"radians": -1.8458345877414966
},
"translation": {
"x": 7.7888514210375455,
"y": 0.4509177639728037
}
},
"time": 2.2637864132047345,
"velocity": 0.8827548534966986
},
{
"acceleration": -0.75,
"curvature": -1.0754447531853246,
"pose": {
"rotation": {
"radians": -1.8949563397990676
},
"translation": {
"x": 7.774125518546999,
"y": 0.4031117709716918
}
},
"time": 2.3218869415099634,
"velocity": 0.8391794572677769
},
{
"acceleration": -0.75,
"curvature": -1.196284062467775,
"pose": {
"rotation": {
"radians": -1.946875799351865
},
"translation": {
"x": 7.75859086667397,
"y": 0.36050852345534956
}
},
"time": 2.377296372069432,
"velocity": 0.7976223843481756
},
{
"acceleration": -0.7500000000000008,
"curvature": -1.128410552361493,
"pose": {
"rotation": {
"radians": -1.9960321066087945
},
"translation": {
"x": 7.7423992028563235,
"y": 0.32230542258999595
}
},
"time": 2.4306554958641087,
"velocity": 0.7576030415021681
},
{
"acceleration": -0.7500000000000008,
"curvature": -6.349229509837199e-14,
"pose": {
"rotation": {
"radians": -2.0480895093930296
},
"translation": {
"x": 7.708817906844512,
"y": 0.2542603874917999
}
},
"time": 2.5363428328079456,
"velocity": 0.6783375387942904
},
{
"acceleration": -0.75,
"curvature": -3.3062506006430485,
"pose": {
"rotation": {
"radians": -2.1097623732806188
},
"translation": {
"x": 7.691252993599863,
"y": 0.22195616298910537
}
},
"time": 2.5922797585695716,
"velocity": 0.6363848444730708
},
{
"acceleration": -0.75,
"curvature": -4.844228933664068,
"pose": {
"rotation": {
"radians": -2.183993729975871
},
"translation": {
"x": 7.681387463841308,
"y": 0.2066908231042639
}
},
"time": 2.6213383365477703,
"velocity": 0.6145909109894216
},
{
"acceleration": -0.75,
"curvature": -5.555202294016764,
"pose": {
"rotation": {
"radians": -2.2310473716510524
},
"translation": {
"x": 7.676016151645098,
"y": 0.19941888596220636
}
},
"time": 2.636182701799276,
"velocity": 0.6034576370507926
},
{
"acceleration": -0.7499999999999969,
"curvature": -6.196301492635775,
"pose": {
"rotation": {
"radians": -2.2841608821128574
},
"translation": {
"x": 7.670295386864017,
"y": 0.1924353297161172
}
},
"time": 2.651284177501836,
"velocity": 0.5921315302738727
},
{
"acceleration": -0.75,
"curvature": -6.737023470002972,
"pose": {
"rotation": {
"radians": -2.3427118389005654
},
"translation": {
"x": 7.664185456808573,
"y": 0.18577376339345975
}
},
"time": 2.6667002670763797,
"velocity": 0.5805694630929649
},
{
"acceleration": -0.75,
"curvature": -7.145764555787521,
"pose": {
"rotation": {
"radians": -2.4058887503346127
},
"translation": {
"x": 7.657649079214744,
"y": 0.17946598448235562
}
},
"time": 2.68250773298991,
"velocity": 0.5687138636578173
},
{
"acceleration": -0.2261364426211992,
"curvature": -7.395526222860751,
"pose": {
"rotation": {
"radians": -2.472693992999183
},
"translation": {
"x": 7.650651358871413,
"y": 0.17354200947834109
}
},
"time": 2.6988043321350355,
"velocity": 0.556491414298973
},
{
"acceleration": 0.30580675778104316,
"curvature": -7.469932388822898,
"pose": {
"rotation": {
"radians": -2.5419781151752665
},
"translation": {
"x": 7.643159744247797,
"y": 0.16803010443113564
}
},
"time": 2.7155748110626874,
"velocity": 0.55269899785322
},
{
"acceleration": 0.7499999999999858,
"curvature": -7.367700456516565,
"pose": {
"rotation": {
"radians": -2.6125043055342436
},
"translation": {
"x": 7.635143984120885,
"y": 0.1629568154913983
}
},
"time": 2.732657744184121,
"velocity": 0.5579230742444761
},
{
"acceleration": 0.7499999999999972,
"curvature": -7.1038963040639125,
"pose": {
"rotation": {
"radians": -2.6830331861072367
},
"translation": {
"x": 7.62657608420286,
"y": 0.15834699945750152
}
},
"time": 2.7498964327543676,
"velocity": 0.5708520906721608
},
{
"acceleration": 0.7500000000000133,
"curvature": -6.707402559381808,
"pose": {
"rotation": {
"radians": -2.752411519404087
},
"translation": {
"x": 7.6174302637685445,
"y": 0.15422385432228225
}
},
"time": 2.767272292081754,
"velocity": 0.5838839851677008
},
{
"acceleration": 0.7499999999999846,
"curvature": -6.21550081778657,
"pose": {
"rotation": {
"radians": -2.8196472213855577
},
"translation": {
"x": 7.607682912282821,
"y": 0.15060894981981576
}
},
"time": 2.784878250735109,
"velocity": 0.5970884541577173
},
{
"acceleration": 0.7500000000000073,
"curvature": -5.667459681165197,
"pose": {
"rotation": {
"radians": -2.8839578860140795
},
"translation": {
"x": 7.59731254602807,
"y": 0.14752225797217733
}
},
"time": 2.8027978273988374,
"velocity": 0.6105281366555131
},
{
"acceleration": 0.749999999999993,
"curvature": -5.099034543996583,
"pose": {
"rotation": {
"radians": -2.944788365812928
},
"translation": {
"x": 7.586299764731601,
"y": 0.14498218363619841
}
},
"time": 2.8211037038753006,
"velocity": 0.6242575440128605
},
{
"acceleration": 0.7499999999999956,
"curvature": -4.539009540642918,
"pose": {
"rotation": {
"radians": -3.0018009687734146
},
"translation": {
"x": 7.574627208193083,
"y": 0.1430055950502389
}
},
"time": 2.8398569358288137,
"velocity": 0.6383224679779951
},
{
"acceleration": 0.7499999999999915,
"curvature": -4.007940296017443,
"pose": {
"rotation": {
"radians": -3.0548467097015495
},
"translation": {
"x": 7.56227951291198,
"y": 0.14160785438094692
}
},
"time": 2.8591067613294956,
"velocity": 0.6527598371035064
},
{
"acceleration": 0.7500000000000061,
"curvature": -3.518583893493639,
"pose": {
"rotation": {
"radians": -3.103927156686606
},
"translation": {
"x": 7.549243268714978,
"y": 0.1408028482700221
}
},
"time": 2.8788909074573383,
"velocity": 0.6675979466993882
},
{
"acceleration": 0.7500000000000038,
"curvature": -3.0772768584906673,
"pose": {
"rotation": {
"radians": 3.1340305047005366
},
"translation": {
"x": 7.535506975383424,
"y": 0.14060301838097544
}
},
"time": 2.8992362690496662,
"velocity": 0.6828569678936341
},
{
"acceleration": 0.7499999999999966,
"curvature": -2.342063835675366,
"pose": {
"rotation": {
"radians": 3.054338223429733
},
"translation": {
"x": 7.505897529979916,
"y": 0.14206161231223646
}
},
"time": 2.941661531420912,
"velocity": 0.7146759146720687
},
{
"acceleration": 0.7499999999999984,
"curvature": -1.784625886361248,
"pose": {
"rotation": {
"radians": 2.9873474617079605
},
"translation": {
"x": 7.4733957258877775,
"y": 0.1460554306961619
}
},
"time": 2.986429649308435,
"velocity": 0.7482520030877107
},
{
"acceleration": 0.7500000000000042,
"curvature": -1.3699829164463033,
"pose": {
"rotation": {
"radians": 2.931002733844255
},
"translation": {
"x": 7.437973895723499,
"y": 0.15263510339608644
}
},
"time": 3.0334698809522527,
"velocity": 0.7835321768205739
},
{
"acceleration": 0.7500000000000039,
"curvature": -1.0633262532618364,
"pose": {
"rotation": {
"radians": 2.8834163717393637
},
"translation": {
"x": 7.399630767611571,
"y": 0.16183107311367806
}
},
"time": 3.0826368964813753,
"velocity": 0.8204074384674159
},
{
"acceleration": 0.7499999999999994,
"curvature": -0.8360360960774074,
"pose": {
"rotation": {
"radians": 2.8429770010256528
},
"translation": {
"x": 7.358390077262302,
"y": 0.17365457288537733
}
},
"time": 3.1337369784058313,
"velocity": 0.8587324999107582
},
{
"acceleration": 0.7500000000000006,
"curvature": -0.5387181653828386,
"pose": {
"rotation": {
"radians": 2.778489662032927
},
"translation": {
"x": 7.267427663089073,
"y": 0.2051389113892501
}
},
"time": 3.2408214519587837,
"velocity": 0.9390458550754723
},
{
"acceleration": 0.7500000000000009,
"curvature": -0.3668561691019845,
"pose": {
"rotation": {
"radians": 2.729730214003133
},
"translation": {
"x": 7.165723949560212,
"y": 0.24683093475888462
}
},
"time": 3.352860965712864,
"velocity": 1.0230754903910328
},
{
"acceleration": 0.75,
"curvature": -0.26335052089122085,
"pose": {
"rotation": {
"radians": 2.691660902055751
},
"translation": {
"x": 7.054227527386247,
"y": 0.2982286639732825
}
},
"time": 3.468005026564959,
"velocity": 1.109433536030104
},
{
"acceleration": 0.75,
"curvature": -0.22737255047537122,
"pose": {
"rotation": {
"radians": 2.675559877509432
},
"translation": {
"x": 6.9951776748172385,
"y": 0.3273510615147339
}
},
"time": 3.526206295734248,
"velocity": 1.1530844879070707
},
{
"acceleration": 0.7500000000000016,
"curvature": -0.19870507778411736,
"pose": {
"rotation": {
"radians": 2.6609952044271292
},
"translation": {
"x": 6.934153868122311,
"y": 0.3586166050250439
}
},
"time": 3.5845628051567933,
"velocity": 1.1968518699739796
},
{
"acceleration": 0.75,
"curvature": -0.17572472488777202,
"pose": {
"rotation": {
"radians": 2.647720645596598
},
"translation": {
"x": 6.8713424547864195,
"y": 0.39190762789292144
}
},
"time": 3.642892943317594,
"velocity": 1.2405994735945804
},
{
"acceleration": 0.75,
"curvature": -0.15722451470947818,
"pose": {
"rotation": {
"radians": 2.635530981643343
},
"translation": {
"x": 6.806940910658615,
"y": 0.42709702880615286
}
},
"time": 3.70102696221951,
"velocity": 1.2841999877710175
},
{
"acceleration": 0.7500000000000014,
"curvature": -0.14230033572006764,
"pose": {
"rotation": {
"radians": 2.6242535284785777
},
"translation": {
"x": 6.741156452029873,
"y": 0.46404924924802327
}
},
"time": 3.758806477254524,
"velocity": 1.327534624047278
},
{
"acceleration": 0.7500000000000028,
"curvature": -0.13027089695248226,
"pose": {
"rotation": {
"radians": 2.6137414667588414
},
"translation": {
"x": 6.674204647710922,
"y": 0.502621250993756
}
},
"time": 3.8160838794473917,
"velocity": 1.3704926756919287
},
{
"acceleration": 0.75,
"curvature": -0.12062093092473072,
"pose": {
"rotation": {
"radians": 2.603868555500155
},
"translation": {
"x": 6.606308031110069,
"y": 0.5426634936069368
}
},
"time": 3.8727217216962595,
"velocity": 1.4129710573785796
},
{
"acceleration": 0.7499999999999987,
"curvature": -0.11296066819643649,
"pose": {
"rotation": {
"radians": 2.594524902037471
},
"translation": {
"x": 6.537694712311025,
"y": 0.5840209119359452
}
},
"time": 3.9285921183079338,
"velocity": 1.4548738548373354
},
{
"acceleration": 0.7500000000000013,
"curvature": -0.10699682361469276,
"pose": {
"rotation": {
"radians": 2.5856135372965174
},
"translation": {
"x": 6.468596990150741,
"y": 0.6265338936103895
}
},
"time": 3.983576181941882,
"velocity": 1.4961119025627965
},
{
"acceleration": 0.7500000000000027,
"curvature": -0.10251183882034647,
"pose": {
"rotation": {
"radians": 2.5770476033461827
},
"translation": {
"x": 6.399249964297223,
"y": 0.6700392565375335
}
},
"time": 4.037563511935621,
"velocity": 1.5366024000581007
},
{
"acceleration": 0.750000000000004,
"curvature": -0.09934915276945139,
"pose": {
"rotation": {
"radians": 2.568748003577019
},
"translation": {
"x": 6.329890147327369,
"y": 0.714371226398729
}
},
"time": 4.0904517413550145,
"velocity": 1.5762685721226464
},
{
"acceleration": 0.7499999999999987,
"curvature": -0.09740298102941516,
"pose": {
"rotation": {
"radians": 2.560641398031972
},
"translation": {
"x": 6.2607540768047905,
"y": 0.7593624141458442
}
},
"time": 4.142146145902529,
"velocity": 1.615039375533282
},
{
"acceleration": 0.7500000000000013,
"curvature": -0.09661158263744046,
"pose": {
"rotation": {
"radians": 2.552658450079111
},
"translation": {
"x": 6.192076927357648,
"y": 0.8048447934976952
}
},
"time": 4.192559315253673,
"velocity": 1.65284925254664
},
{
"acceleration": 0.24582316698568307,
"curvature": -0.09695335274639744,
"pose": {
"rotation": {
"radians": 2.5447322478015355
},
"translation": {
"x": 6.124091122756464,
"y": 0.8506506784364811
}
},
"time": 4.2416108859394805,
"velocity": 1.6896379305609959
},
{
"acceleration": -0.02737896660581958,
"curvature": -0.09844534958007438,
"pose": {
"rotation": {
"radians": 2.536796835720221
},
"translation": {
"x": 6.057024947991965,
"y": 0.896613700704207
}
},
"time": 4.289563276275677,
"velocity": 1.7014257390179734
},
{
"acceleration": -0.041129030205009284,
"curvature": -0.1011440798881428,
"pose": {
"rotation": {
"radians": 2.52878580092264
},
"translation": {
"x": 5.991101161352902,
"y": 0.9425697872991199
}
},
"time": 4.336812866656565,
"velocity": 1.7001320940607965
},
{
"acceleration": -0.05687730064506925,
"curvature": -0.1051485529612107,
"pose": {
"rotation": {
"radians": 2.520630863255932
},
"translation": {
"x": 5.926535606503878,
"y": 0.9883581379721376
}
},
"time": 4.3833964070513725,
"velocity": 1.6982161582208422
},
{
"acceleration": -0.0754016668744585,
"curvature": -0.11060578775507585,
"pose": {
"rotation": {
"radians": 2.5122604227423353
},
"translation": {
"x": 5.8635358245631775,
"y": 1.0338222027232815
}
},
"time": 4.429180338797744,
"velocity": 1.6956120917701905
},
{
"acceleration": -0.5254264041683697,
"curvature": -0.11771913442818795,
"pose": {
"rotation": {
"radians": 2.503598019576583
},
"translation": {
"x": 5.802299666180586,
"y": 1.0788106592981022
}
},
"time": 4.474038224863305,
"velocity": 1.6922297323883826
},
{
"acceleration": -0.7499999999999969,
"curvature": -0.12675995942457435,
"pose": {
"rotation": {
"radians": 2.494560663938609
},
"translation": {
"x": 5.7430139036152354,
"y": 1.1231783906841155
}
},
"time": 4.518098013982702,
"velocity": 1.669079555822961
},
{
"acceleration": -0.75,
"curvature": -0.13808344361847233,
"pose": {
"rotation": {
"radians": 2.485056995798123
},
"translation": {
"x": 5.685852842813409,
"y": 1.166787462607231
}
},
"time": 4.561598839450885,
"velocity": 1.6364539367218243
},
{
"acceleration": -0.75,
"curvature": -0.15214944355889856,
"pose": {
"rotation": {
"radians": 2.47498524111548
},
"translation": {
"x": 5.630976935486383,
"y": 1.2095081010281836
}
},
"time": 4.6045179390213065,
"velocity": 1.604264612044008
},
{
"acceleration": -0.7499999999999966,
"curvature": -0.16954952615132582,
"pose": {
"rotation": {
"radians": 2.46423094400998
},
"translation": {
"x": 5.578531391188256,
"y": 1.2512196696389601
}
},
"time": 4.646704090312109,
"velocity": 1.5726249985759067
},
{
"acceleration": -0.75,
"curvature": -0.19104131102707764,
"pose": {
"rotation": {
"radians": 2.452664480663856
},
"translation": {
"x": 5.528644789393763,
"y": 1.2918116473592338
}
},
"time": 4.688007287883499,
"velocity": 1.5416476003973643
},
{
"acceleration": -0.7500000000000021,
"curvature": -0.2504234008377809,
"pose": {
"rotation": {
"radians": 2.426484805922963
},
"translation": {
"x": 5.436971253284812,
"y": 1.3692511869239894
}
},
"time": 4.7673810730240165,
"velocity": 1.4821172615419764
},
{
"acceleration": -0.75,
"curvature": -0.34145964666881234,
"pose": {
"rotation": {
"radians": 2.395007387692601
},
"translation": {
"x": 5.3565996203277635,
"y": 1.4411820004979212
}
},
"time": 4.841546633850339,
"velocity": 1.4264930909222349
},
{
"acceleration": -0.75,
"curvature": -0.4809645145058258,
"pose": {
"rotation": {
"radians": 2.3564182344306155
},
"translation": {
"x": 5.287818275402096,
"y": 1.5071837722710386
}
},
"time": 4.909589375260269,
"velocity": 1.3754610348647875
},
{
"acceleration": -0.7500000000000016,
"curvature": -0.6903213513121095,
"pose": {
"rotation": {
"radians": 2.3086310926039206
},
"translation": {
"x": 5.23051628158904,
"y": 1.5670918697336589
}
},
"time": 4.970884792224623,
"velocity": 1.3294894721415222
},
{
"acceleration": -0.7500000000000018,
"curvature": -0.9825835270826538,
"pose": {
"rotation": {
"radians": 2.249865823195917
},
"translation": {
"x": 5.184138966662003,
"y": 1.6210286235621947
}
},
"time": 5.0252222583584265,
"velocity": 1.2887363725411694
},
{
"acceleration": -0.7499999999999979,
"curvature": -1.315292116853681,
"pose": {
"rotation": {
"radians": 2.1803767486688628
},
"translation": {
"x": 5.147643509577113,
"y": 1.6694346075049404
}
},
"time": 5.0729244632891515,
"velocity": 1.2529597188431258
},
{
"acceleration": 0.7499999999999976,
"curvature": -1.4921377055005414,
"pose": {
"rotation": {
"radians": 2.1061110287975078
},
"translation": {
"x": 5.119454526963626,
"y": 1.713099918267833
}
},
"time": 5.114933479698019,
"velocity": 1.2214529565364751
},
{
"acceleration": 0.14320068375720207,
"curvature": -1.1263195785789657,
"pose": {
"rotation": {
"radians": 2.043212508667655
},
"translation": {
"x": 5.097419659614452,
"y": 1.7531954554002613
}
},
"time": 5.151968887064467,
"velocity": 1.2492295120613117
},
{
"acceleration": -0.7499999999999987,
"curvature": 2.9834999896210965e-14,
"pose": {
"rotation": {
"radians": 2.0168520402715404
},
"translation": {
"x": 5.0787651589766005,
"y": 1.7913042011808216
}
},
"time": 5.185867601585816,
"velocity": 1.254083831159259
},
{
"acceleration": -0.75,
"curvature": 0.10717351554076103,
"pose": {
"rotation": {
"radians": 2.0217945258713605
},
"translation": {
"x": 5.042655848231396,
"y": 1.8664808641785582
}
},
"time": 5.253747429984012,
"velocity": 1.2031739598606124
},
{
"acceleration": -0.7500000000000014,
"curvature": 0.15304251068736874,
"pose": {
"rotation": {
"radians": 2.0328116944667065
},
"translation": {
"x": 5.006620046229782,
"y": 1.939915784396483
}
},
"time": 5.323239537832269,
"velocity": 1.151054878974419
},
{
"acceleration": -0.75,
"curvature": 0.14234150824979286,
"pose": {
"rotation": {
"radians": 2.0448726501819774
},
"translation": {
"x": 4.970958658861576,
"y": 2.010449090261739
}
},
"time": 5.3935122951262695,
"velocity": 1.0983503110039188
},
{
"acceleration": -0.7499999999999984,
"curvature": 0.06824729295383584,
"pose": {
"rotation": {
"radians": 2.0532825765765086
},
"translation": {
"x": 4.936169987826708,
"y": 2.077477123303943
}
},
"time": 5.463962954917144,
"velocity": 1.045512316160763
},
{
"acceleration": -0.75,
"curvature": -0.08189299004414446,
"pose": {
"rotation": {
"radians": 2.0533398536210097
},
"translation": {
"x": 4.902893989450851,
"y": 2.1408660271196682
}
},
"time": 5.5342085461425725,
"velocity": 0.9928281227416917
},
{
"acceleration": -0.75,
"curvature": -0.32058418263631167,
"pose": {
"rotation": {
"radians": 2.0403480265493643
},
"translation": {
"x": 4.871856533501072,
"y": 2.2008653363368964
}
},
"time": 5.604092948318078,
"velocity": 0.9404148211100629
},
{
"acceleration": -0.749999999999999,
"curvature": -1.0456088845869602,
"pose": {
"rotation": {
"radians": 1.9592661271411382
},
"translation": {
"x": 4.819495848048813,
"y": 2.313091798431591
}
},
"time": 5.743533158933278,
"velocity": 0.8358346631486627
},
{
"acceleration": -0.75,
"curvature": -1.4378829202292576,
"pose": {
"rotation": {
"radians": 1.8877461835849922
},
"translation": {
"x": 4.799552254628193,
"y": 2.3669572764021884
}
},
"time": 5.814514114218955,
"velocity": 0.7825989466844054
},
{
"acceleration": -0.75,
"curvature": -1.5989606471420246,
"pose": {
"rotation": {
"radians": 1.8451688017860766
},
"translation": {
"x": 4.791387703259484,
"y": 2.3937263044952477
}
},
"time": 5.850909741486711,
"velocity": 0.7553022262335887
},
{
"acceleration": -0.749999999999999,
"curvature": -1.7169840413448223,
"pose": {
"rotation": {
"radians": 1.7991555715153222
},
"translation": {
"x": 4.784494993428652,
"y": 2.4205369878894674
}
},
"time": 5.888253032124423,
"velocity": 0.7272947582553048
},
{
"acceleration": -0.749999999999999,
"curvature": -1.7803797326013686,
"pose": {
"rotation": {
"radians": 1.7508718240797718
},
"translation": {
"x": 4.778907579793763,
"y": 2.4474959212755447
}
},
"time": 5.926877399637937,
"velocity": 0.6983264826201692
},
{
"acceleration": -0.750000000000001,
"curvature": -1.7831195043654458,
"pose": {
"rotation": {
"radians": 1.7016606950085256
},
"translation": {
"x": 4.774643383658833,
"y": 2.4747012571453153
}
},
"time": 5.967183345136152,
"velocity": 0.6680970234965083
},
{
"acceleration": -0.749999999999999,
"curvature": -1.725960795169857,
"pose": {
"rotation": {
"radians": 1.652932056908559
},
"translation": {
"x": 4.771703051061823,
"y": 2.502240005446885
}
},
"time": 6.009649543876235,
"velocity": 0.636247374441446
},
{
"acceleration": -0.75,
"curvature": -1.6159380009071371,
"pose": {
"rotation": {
"radians": 1.6060446058429765
},
"translation": {
"x": 4.77006821086262,
"y": 2.530185333239774
}
},
"time": 6.05485098129652,
"velocity": 0.6023462963762325
},
{
"acceleration": -0.7499999999999998,
"curvature": -1.2837850305066603,
"pose": {
"rotation": {
"radians": 1.5224189604272416
},
"translation": {
"x": 4.77053598573478,
"y": 2.5875029790254924
}
},
"time": 6.156436025197831,
"velocity": 0.5261575134502489
},
{
"acceleration": -0.7500000000000001,
"curvature": -0.8794217903542604,
"pose": {
"rotation": {
"radians": 1.4578929506544895
},
"translation": {
"x": 4.7754532029366015,
"y": 2.6468600601021857
}
},
"time": 6.280627385624321,
"velocity": 0.4330139931303813
},
{
"acceleration": -0.7500000000000001,
"curvature": -1.4485628904909712e-13,
"pose": {
"rotation": {
"radians": 1.4019644247837342
},
"translation": {
"x": 4.794127415700859,
"y": 2.7704580380494157
}
},
"time": 6.857979376464829,
"velocity": 0.0
}
]