[
{
"acceleration": 0.75,
"curvature": 0.0,
"pose": {
"rotation": {
"radians": -1.55377669373676
},
"translation": {
"x": 7.56,
"y": 1.88
}
},
"time": 0.0,
"velocity": 0.0
},
{
"acceleration": 0.7500000000000002,
"curvature": -0.5911106533850206,
"pose": {
"rotation": {
"radians": -1.5761368676476402
},
"translation": {
"x": 7.56069460613598,
"y": 1.8065553942711192
}
},
"time": 0.44256190615419416,
"velocity": 0.33192142961564564
},
{
"acceleration": 0.7499999999999991,
"curvature": -1.0739220916103418,
"pose": {
"rotation": {
"radians": -1.6380312321641757
},
"translation": {
"x": 7.558245669418472,
"y": 1.7331026992195753
}
},
"time": 0.625974223490622,
"velocity": 0.4694806676179666
},
{
"acceleration": 0.7499999999999991,
"curvature": -1.2696937893247022,
"pose": {
"rotation": {
"radians": -1.6813212385271865
},
"translation": {
"x": 7.554996768635054,
"y": 1.6963954659859812
}
},
"time": 0.7000802402328049,
"velocity": 0.5250601801746037
},
{
"acceleration": 0.75,
"curvature": -1.4298118096366648,
"pose": {
"rotation": {
"radians": -1.7313977847011457
},
"translation": {
"x": 7.550013296519468,
"y": 1.6597243859713435
}
},
"time": 0.7673335262498671,
"velocity": 0.5755001446874002
},
{
"acceleration": 0.7500000000000008,
"curvature": -1.5501031369618847,
"pose": {
"rotation": {
"radians": -1.787064849060756
},
"translation": {
"x": 7.543045918554989,
"y": 1.6231137264273547
}
},
"time": 0.8295669902762831,
"velocity": 0.6221752427072123
},
{
"acceleration": 0.75,
"curvature": -1.6276150898933717,
"pose": {
"rotation": {
"radians": -1.8470416715876385
},
"translation": {
"x": 7.533875501908969,
"y": 1.5865927523225087
}
},
"time": 0.8880281433780766,
"velocity": 0.6660211075335574
},
{
"acceleration": 0.7499999999999997,
"curvature": -1.661707844449093,
"pose": {
"rotation": {
"radians": -1.9099998309409483
},
"translation": {
"x": 7.52231203165619,
"y": 1.550195418117064
}
},
"time": 0.9436281640381149,
"velocity": 0.7077211230285861
},
{
"acceleration": 0.75,
"curvature": -1.6546696732391635,
"pose": {
"rotation": {
"radians": -1.9746219746626184
},
"translation": {
"x": 7.508193527002212,
"y": 1.5139600595380065
}
},
"time": 0.9970643881717912,
"velocity": 0.7477982911288433
},
{
"acceleration": 0.75,
"curvature": -1.6116438645421243,
"pose": {
"rotation": {
"radians": -2.039670461385179
},
"translation": {
"x": 7.491384957506726,
"y": 1.4779290853540035
}
},
"time": 1.0488854837062191,
"velocity": 0.7866641127796643
},
{
"acceleration": 0.750000000000002,
"curvature": -1.5399042424384044,
"pose": {
"rotation": {
"radians": -2.10405143968664
},
"translation": {
"x": 7.471777159306903,
"y": 1.4421486691503738
}
},
"time": 1.0995284658681368,
"velocity": 0.8246463494011025
},
{
"acceleration": 0.7500000000000016,
"curvature": -1.447745071443663,
"pose": {
"rotation": {
"radians": -2.1668618950281586
},
"translation": {
"x": 7.4492857513407476,
"y": 1.406668441104041
}
},
"time": 1.1493412831401144,
"velocity": 0.8620059623550858
},
{
"acceleration": 0.7499999999999988,
"curvature": -1.3433425533103505,
"pose": {
"rotation": {
"radians": -2.2274128793673684
},
"translation": {
"x": 7.423850051570446,
"y": 1.3715411797584993
}
},
"time": 1.1985979092352723,
"velocity": 0.8989484319264542
},
{
"acceleration": 0.75,
"curvature": -1.2338758044730962,
"pose": {
"rotation": {
"radians": -2.285228843206146
},
"translation": {
"x": 7.395431993205719,
"y": 1.3368225037987695
}
},
"time": 1.247509537822264,
"velocity": 0.935632153366698
},
{
"acceleration": 0.7499999999999977,
"curvature": -1.1250367972683755,
"pose": {
"rotation": {
"radians": -2.3400281282247866
},
"translation": {
"x": 7.364015040927172,
"y": 1.3025705638263645
}
},
"time": 1.2962337109887274,
"velocity": 0.9721752832415456
},
{
"acceleration": 0.75,
"curvature": -1.0209079186971515,
"pose": {
"rotation": {
"radians": -2.3916920038733376
},
"translation": {
"x": 7.329603107109646,
"y": 1.2688457341342492
}
},
"time": 1.3448822548308474,
"velocity": 1.0086616911231354
},
{
"acceleration": 0.75,
"curvature": -0.9240997958069834,
"pose": {
"rotation": {
"radians": -2.440229389194549
},
"translation": {
"x": 7.2922194680455705,
"y": 1.235710304481798
}
},
"time": 1.393528390916603,
"velocity": 1.045146293187452
},
{
"acceleration": 0.7500000000000016,
"curvature": -0.8360246708875495,
"pose": {
"rotation": {
"radians": -2.485742651880953
},
"translation": {
"x": 7.25190568016831,
"y": 1.2032281718697613
}
},
"time": 1.4422131488766876,
"velocity": 1.0816598616575155
},
{
"acceleration": 0.7500000000000012,
"curvature": -0.7572055831057568,
"pose": {
"rotation": {
"radians": -2.528397717068932
},
"translation": {
"x": 7.208720496275519,
"y": 1.1714645323152206
}
},
"time": 1.4909511076367523,
"velocity": 1.1182133307275641
},
{
"acceleration": 0.7500000000000009,
"curvature": -0.6266295617442442,
"pose": {
"rotation": {
"radians": -2.6059752688132045
},
"translation": {
"x": 7.114050430795514,
"y": 1.1103581621783905
}
},
"time": 1.5885247231383604,
"velocity": 1.1913935423537703
},
{
"acceleration": 0.7500000000000009,
"curvature": -0.5281788740470189,
"pose": {
"rotation": {
"radians": -2.6747797428156774
},
"translation": {
"x": 7.008982037759901,
"y": 1.052927029983155
}
},
"time": 1.686036134703384,
"velocity": 1.264527101027538
},
{
"acceleration": 0.75,
"curvature": -0.455955573800065,
"pose": {
"rotation": {
"radians": -2.7366321840051215
},
"translation": {
"x": 6.894493863446102,
"y": 0.9997080295001961
}
},
"time": 1.7830850641135048,
"velocity": 1.3373137980851286
},
{
"acceleration": 0.7500000000000026,
"curvature": -0.42792882342751143,
"pose": {
"rotation": {
"radians": -2.7654794828877876
},
"translation": {
"x": 6.83407088728287,
"y": 0.9748437199402513
}
},
"time": 1.8312917226523928,
"velocity": 1.3734687919892947
},
{
"acceleration": 0.75,
"curvature": -0.4044897869450201,
"pose": {
"rotation": {
"radians": -2.7931977433582733
},
"translation": {
"x": 6.77173555340185,
"y": 0.9512292491577794
}
},
"time": 1.8791979679033917,
"velocity": 1.409398475927544
},
{
"acceleration": 0.7500000000000008,
"curvature": -0.3851315000046611,
"pose": {
"rotation": {
"radians": -2.8199639037197395
},
"translation": {
"x": 6.707652611930085,
"y": 0.9289276341901056
}
},
"time": 1.9267395951536734,
"velocity": 1.4450546963652553
},
{
"acceleration": 0.7499999999999992,
"curvature": -0.3694207023455503,
"pose": {
"rotation": {
"radians": -2.845943065603878
},
"translation": {
"x": 6.641993171592417,
"y": 0.9080001088404988
}
},
"time": 1.97385304041401,
"velocity": 1.4803897803105077
},
{
"acceleration": 0.7499999999999961,
"curvature": -0.35699256488957287,
"pose": {
"rotation": {
"radians": -2.871289457377418
},
"translation": {
"x": 6.574933615934839,
"y": 0.8885058154531276
}
},
"time": 2.0204762063567854,
"velocity": 1.5153571547675893
},
{
"acceleration": 0.7500000000000031,
"curvature": -0.3475441695217232,
"pose": {
"rotation": {
"radians": -2.8961475066864604
},
"translation": {
"x": 6.506654519547842,
"y": 0.8705014966880276
}
},
"time": 2.066549136665186,
"velocity": 1.5499118524988895
},
{
"acceleration": 0.22907008500552817,
"curvature": -0.3408276000586335,
"pose": {
"rotation": {
"radians": -2.920652921361969
},
"translation": {
"x": 6.437339564289771,
"y": 0.8540411872960583
}
},
"time": 2.1120145691136747,
"velocity": 1.584010926835256
},
{
"acceleration": 0.016889296297966132,
"curvature": -0.33664309397633824,
"pose": {
"rotation": {
"radians": -2.9449337079030067
},
"translation": {
"x": 6.367174455510167,
"y": 0.8391759058938657
}
},
"time": 2.1571463415489265,
"velocity": 1.5943492657834493
},
{
"acceleration": -0.004097435088517395,
"curvature": -0.3348324330732513,
"pose": {
"rotation": {
"radians": -2.969111075780247
},
"translation": {
"x": 6.2963458382731305,
"y": 0.8259533467388414
}
},
"time": 2.2023278016725967,
"velocity": 1.5951123488506527
},
{
"acceleration": -0.024134488978160208,
"curvature": -0.33527257026861224,
"pose": {
"rotation": {
"radians": -2.99330018660012
},
"translation": {
"x": 6.225040213580661,
"y": 0.8144175715040856
}
},
"time": 2.2476142194885105,
"velocity": 1.5949267906932605
},
{
"acceleration": -0.04345376216882352,
"curvature": -0.33786936558599334,
"pose": {
"rotation": {
"radians": -3.017610711806305
},
"translation": {
"x": 6.153442854596014,
"y": 0.8046087010533656
}
},
"time": 2.2929397709263215,
"velocity": 1.5938328816716556
},
{
"acceleration": -0.062221788913372274,
"curvature": -0.34255121425562063,
"pose": {
"rotation": {
"radians": -3.042147162608379
},
"translation": {
"x": 6.081736722867051,
"y": 0.7965626072160799
}
},
"time": 2.33823983301927,
"velocity": 1.5918644235472357
},
{
"acceleration": -0.0805323186275288,
"curvature": -0.34926227944925553,
"pose": {
"rotation": {
"radians": -3.067008952391406
},
"translation": {
"x": 6.010101384549591,
"y": 0.7903106045622161
}
},
"time": 2.383451747440762,
"velocity": 1.5890512573517321
},
{
"acceleration": -0.09839566446625475,
"curvature": -0.35795498397762,
"pose": {
"rotation": {
"radians": -3.092290145952859
},
"translation": {
"x": 5.9387119266307575,
"y": 0.785879142177313
}
},
"time": 2.4285155148317576,
"velocity": 1.5854221676776437
},
{
"acceleration": -0.11572455482715929,
"curvature": -0.36858136804362185,
"pose": {
"rotation": {
"radians": -3.1180788424853287
},
"translation": {
"x": 5.867737873152334,
"y": 0.7832894954374208
}
},
"time": 2.473374408275046,
"velocity": 1.5810082470500704
},
{
"acceleration": -0.13231656024973687,
"curvature": -0.3810828888140252,
"pose": {
"rotation": {
"radians": 3.138729175806849
},
"translation": {
"x": 5.797342101434118,
"y": 0.7825574577840628
}
},
"time": 2.517975491700706,
"velocity": 1.5758468065258269
},
{
"acceleration": -0.1478336295254209,
"curvature": -0.3953782340173138,
"pose": {
"rotation": {
"radians": 3.1116907541614927
},
"translation": {
"x": 5.727679758297258,
"y": 0.7836930324991966
}
},
"time": 2.5622700263829157,
"velocity": 1.5699859060588142
},
{
"acceleration": -0.16177987349260087,
"curvature": -0.4113487656358267,
"pose": {
"rotation": {
"radians": 3.08392931418134
},
"translation": {
"x": 5.658897176287621,
"y": 0.7867001244801735
}
},
"time": 2.6062137463200012,
"velocity": 1.5634895464456662
},
{
"acceleration": -0.17347946276284007,
"curvature": -0.4288213287993158,
"pose": {
"rotation": {
"radians": 3.055396367759775
},
"translation": {
"x": 5.591130789899134,
"y": 0.7915762320147
}
},
"time": 2.6497669816128373,
"velocity": 1.5564435095497977
},
{
"acceleration": -0.18205726850793968,
"curvature": -0.447548389782172,
"pose": {
"rotation": {
"radians": 3.0260602634623135
},
"translation": {
"x": 5.524506051797136,
"y": 0.798312138555799
}
},
"time": 2.6928946085572556,
"velocity": 1.5489617519972438
},
{
"acceleration": -0.18642549407196746,
"curvature": -0.4671858422736824,
"pose": {
"rotation": {
"radians": 2.995910358996423
},
"translation": {
"x": 5.459136349041733,
"y": 0.8068916044967711
}
},
"time": 2.7355658067822537,
"velocity": 1.5411931502044398
},
{
"acceleration": -0.18125294638176584,
"curvature": -0.48726937158803696,
"pose": {
"rotation": {
"radians": 2.964961923822576
},
"translation": {
"x": 5.395121919311142,
"y": 0.8172910589461546
}
},
"time": 2.7777536082443497,
"velocity": 1.5333282684730585
},
{
"acceleration": -0.14661560760089376,
"curvature": -0.526178264898666,
"pose": {
"rotation": {
"radians": 2.900894036705322
},
"translation": {
"x": 5.2714875800679595,
"y": 0.8434171440302638
}
},
"time": 2.8605709824938317,
"velocity": 1.5183173753787385
},
{
"acceleration": -0.06566118165514866,
"curvature": -0.5573589100273106,
"pose": {
"rotation": {
"radians": 2.834719590522323
},
"translation": {
"x": 5.154100764342976,
"y": 0.8763434884297006
}
},
"time": 2.9411823160255848,
"velocity": 1.5064984957334622
},
{
"acceleration": 0.07792055673121864,
"curvature": -0.5710642706472753,
"pose": {
"rotation": {
"radians": 2.7681005912743233
},
"translation": {
"x": 5.0431794505958845,
"y": 0.9155861598073471
}
},
"time": 3.019416348512997,
"velocity": 1.5013615567146914
},
{
"acceleration": 0.3019007297420406,
"curvature": -0.5553457045739172,
"pose": {
"rotation": {
"radians": 2.7036547660658337
},
"translation": {
"x": 4.93862718461791,
"y": 0.9605143356661321
}
},
"time": 3.095063599318904,
"velocity": 1.5072560326126738
},
{
"acceleration": 0.6276830804452458,
"curvature": -0.49781941688212966,
"pose": {
"rotation": {
"radians": 2.645006673619463
},
"translation": {
"x": 4.839998398679029,
"y": 1.0103404401477833
}
},
"time": 3.1678452078666828,
"velocity": 1.5292288533450478
},
{
"acceleration": 0.749999999999999,
"curvature": -0.3882834587633604,
"pose": {
"rotation": {
"radians": 2.5966798303029983
},
"translation": {
"x": 4.746463730675217,
"y": 1.064110280831576
}
},
"time": 3.23740317087056,
"velocity": 1.5728892098328178
},
{
"acceleration": 0.7500000000000021,
"curvature": -0.2215026074985937,
"pose": {
"rotation": {
"radians": 2.563816065873493
},
"translation": {
"x": 4.656775343275676,
"y": 1.1206931855330744
}
},
"time": 3.303773725973218,
"velocity": 1.6226671261598111
},
{
"acceleration": 0.4945196729788356,
"curvature": 9.638802824568074e-15,
"pose": {
"rotation": {
"radians": 2.551731316123332
},
"translation": {
"x": 4.569232243070045,
"y": 1.1787721391028878
}
},
"time": 3.3675763333584356,
"velocity": 1.6705190816987243
},
{
"acceleration": -0.5678162289249429,
"curvature": 0.09863296396568866,
"pose": {
"rotation": {
"radians": 2.557095406195124
},
"translation": {
"x": 4.4818187446955156,
"y": 1.2370530133185067
}
},
"time": 3.4298926814838517,
"velocity": 1.7013357417949404
},
{
"acceleration": -0.36710077723601187,
"curvature": 0.1748124646760806,
"pose": {
"rotation": {
"radians": 2.571815041048332
},
"translation": {
"x": 4.392978549735627,
"y": 1.2949807255168375
}
},
"time": 3.4928928084754025,
"velocity": 1.6655632472648056
},
{
"acceleration": -0.2116623785262438,
"curvature": 0.22764859309237476,
"pose": {
"rotation": {
"radians": 2.593726593486928
},
"translation": {
"x": 4.301572564628453,
"y": 1.3521980680285877
}
},
"time": 3.5581067176900563,
"velocity": 1.6416231705055075
},
{
"acceleration": -0.10097280347978205,
"curvature": 0.2598821239420243,
"pose": {
"rotation": {
"radians": 2.6207662858083784
},
"translation": {
"x": 4.206755260515431,
"y": 1.4083459126831919
}
},
"time": 3.6255252746781856,
"velocity": 1.627353198376593
},
{
"acceleration": -0.02819234648866523,
"curvature": 0.2759543987199371,
"pose": {
"rotation": {
"radians": 2.651160416840127
},
"translation": {
"x": 4.107952470786978,
"y": 1.463065953039827
}
},
"time": 3.6950786533478284,
"velocity": 1.6203301987408283
},
{
"acceleration": 0.015185958282170732,
"curvature": 0.2805983413900952,
"pose": {
"rotation": {
"radians": 2.68350618802993
},
"translation": {
"x": 4.0048391886281145,
"y": 1.5160034466184165
}
},
"time": 3.7666569598829764,
"velocity": 1.6183122383219175
},
{
"acceleration": 0.03712103194819209,
"curvature": 0.27802968782932996,
"pose": {
"rotation": {
"radians": 2.7167765553635275
},
"translation": {
"x": 3.897317364564062,
"y": 1.5668099571306477
}
},
"time": 3.840116327731378,
"velocity": 1.619427789217498
},
{
"acceleration": 0.04411887579857322,
"curvature": 0.2716207789173763,
"pose": {
"rotation": {
"radians": 2.7502814624445295
},
"translation": {
"x": 3.7854937040058667,
"y": 1.615146096710978
}
},
"time": 3.915277712460055,
"velocity": 1.6222178573812815
},
{
"acceleration": 0.04101544143025275,
"curvature": 0.2638827461003677,
"pose": {
"rotation": {
"radians": 2.7836106842216335
},
"translation": {
"x": 3.669657464796007,
"y": 1.6606842681476461
}
},
"time": 3.9919235869343885,
"velocity": 1.6255993871976877
},
{
"acceleration": 0.034254283162256954,
"curvature": 0.2566034430678764,
"pose": {
"rotation": {
"radians": 2.816574874020906
},
"translation": {
"x": 3.550258254754005,
"y": 1.7031114071136848
}
},
"time": 4.069795684243035,
"velocity": 1.6287933456439014
},
{
"acceleration": 0.02795486465392132,
"curvature": 0.2535435871496553,
"pose": {
"rotation": {
"radians": 2.8329083713454883
},
"translation": {
"x": 3.4894014199261396,
"y": 1.7230651554996381
}
},
"time": 4.109099692921987,
"velocity": 1.630139676286602
},
{
"acceleration": 0.02055112093518463,
"curvature": 0.25103806324762373,
"pose": {
"rotation": {
"radians": 2.8491538949259176
},
"translation": {
"x": 3.42788382922204,
"y": 1.7421317243979262
}
},
"time": 4.148594935616333,
"velocity": 1.6312437604505963
},
{
"acceleration": 0.012158039196372684,
"curvature": 0.24919138148350603,
"pose": {
"rotation": {
"radians": 2.8653286996449614
},
"translation": {
"x": 3.36579689501972,
"y": 1.760277289291274
}
},
"time": 4.188238351998238,
"velocity": 1.6320584770949447
},
{
"acceleration": 0.0028364016812726166,
"curvature": 0.2480969127970786,
"pose": {
"rotation": {
"radians": 2.881456175605033
},
"translation": {
"x": 3.3032378886105622,
"y": 1.777469448136018
}
},
"time": 4.227984930944095,
"velocity": 1.6325417175596901
},
{
"acceleration": -0.04134087272328838,
"curvature": 0.2478413100988346,
"pose": {
"rotation": {
"radians": 2.897565198785793
},
"translation": {
"x": 3.240309246372617,
"y": 1.7936773070568295
}
},
"time": 4.267787972258287,
"velocity": 1.6326546149729935
},
{
"acceleration": -0.75,
"curvature": 0.24850853659415817,
"pose": {
"rotation": {
"radians": 2.913689634899761
},
"translation": {
"x": 3.1771178759439023,
"y": 1.8088715660414305
}
},
"time": 4.307615875383918,
"velocity": 1.6310080946990413
},
{
"acceleration": -0.7499999999999966,
"curvature": 0.25018357250941076,
"pose": {
"rotation": {
"radians": 2.92986798300702
},
"translation": {
"x": 3.113774462395706,
"y": 1.8230246046353145
}
},
"time": 4.347781380789049,
"velocity": 1.6008839656451934
},
{
"acceleration": -0.7499999999999966,
"curvature": 0.2529558801348498,
"pose": {
"rotation": {
"radians": 2.946143145546056
},
"translation": {
"x": 3.050392774405884,
"y": 1.8361105676364673
}
},
"time": 4.388598350787502,
"velocity": 1.5702712381463533
},
{
"acceleration": -0.75,
"curvature": 0.2569227086511041,
"pose": {
"rotation": {
"radians": 2.96256231186745
},
"translation": {
"x": 2.987088970432163,
"y": 1.8481054507900803
}
},
"time": 4.4300397301579535,
"velocity": 1.5391902036185152
},
{
"acceleration": -0.75,
"curvature": 0.26219231612616145,
"pose": {
"rotation": {
"radians": 2.9791769428178063
},
"translation": {
"x": 2.923980904885438,
"y": 1.8589871864832768
}
},
"time": 4.472076127349334,
"velocity": 1.50766290572498
},
{
"acceleration": -0.7500000000000009,
"curvature": 0.27714722701461797,
"pose": {
"rotation": {
"radians": 3.0132203161760445
},
"translation": {
"x": 2.798827723522212,
"y": 1.8773331424148632
}
},
"time": 4.557802562422465,
"velocity": 1.443368079420132
},
{
"acceleration": -0.75,
"curvature": 0.29902990533087614,
"pose": {
"rotation": {
"radians": 3.0487749680541887
},
"translation": {
"x": 2.6758836192521844,
"y": 1.8910138837660941
}
},
"time": 4.6455053103194635,
"velocity": 1.3775910184973832
},
{
"acceleration": -0.749999999999999,
"curvature": 0.32943620070664276,
"pose": {
"rotation": {
"radians": 3.086422275807937
},
"translation": {
"x": 2.556081711353277,
"y": 1.8999313296047156
}
},
"time": 4.734885343188826,
"velocity": 1.3105559938453615
},
{
"acceleration": -0.749999999999999,
"curvature": 0.37045242069221596,
"pose": {
"rotation": {
"radians": 3.126832028110828
},
"translation": {
"x": 2.440315646990965,
"y": 1.9040266119623563
}
},
"time": 4.8256303995404854,
"velocity": 1.2424972015816167
},
{
"acceleration": -0.749999999999999,
"curvature": 0.424729665585538,
"pose": {
"rotation": {
"radians": -3.112416723046775
},
"translation": {
"x": 2.3294173987638898,
"y": 1.903282818065545
}
},
"time": 4.917430156200319,
"velocity": 1.1736473840867419
},
{
"acceleration": -0.75,
"curvature": 0.4954579244590655,
"pose": {
"rotation": {
"radians": -3.0640981416670527
},
"translation": {
"x": 2.2241350622494727,
"y": 1.8977277325667155
}
},
"time": 5.0099980747109845,
"velocity": 1.1042214452037427
},
{
"acceleration": -0.75,
"curvature": 0.5860859189579163,
"pose": {
"rotation": {
"radians": -3.0104780480238302
},
"translation": {
"x": 2.125110653549527,
"y": 1.887436579775219
}
},
"time": 5.103102972167661,
"velocity": 1.0343927721112356
},
{
"acceleration": -0.75,
"curvature": 0.699494844477719,
"pose": {
"rotation": {
"radians": -2.9506441721294445
},
"translation": {
"x": 2.0328579068358685,
"y": 1.8725347658883376
}
},
"time": 5.196614565869278,
"velocity": 0.9642590768350227
},
{
"acceleration": -0.7500000000000007,
"curvature": 0.836164581103393,
"pose": {
"rotation": {
"radians": -2.883841311531249
},
"translation": {
"x": 1.9477400718959275,
"y": 1.8532006212222871
}
},
"time": 5.290568916137658,
"velocity": 0.893793314133738
},
{
"acceleration": -0.75,
"curvature": 0.9908266043061582,
"pose": {
"rotation": {
"radians": -2.8097414729157997
},
"translation": {
"x": 1.869947711678365,
"y": 1.8296681424432357
}
},
"time": 5.385262348620178,
"velocity": 0.8227732397718474
},
{
"acceleration": -0.7499999999999988,
"curvature": 1.1476134934719218,
"pose": {
"rotation": {
"radians": -2.7288658073851293
},
"translation": {
"x": 1.7994764998386783,
"y": 1.8022297347983107
}
},
"time": 5.481387856590928,
"velocity": 0.7506791087937854
},
{
"acceleration": -0.75,
"curvature": 1.275413198700879,
"pose": {
"rotation": {
"radians": -2.6431330519340697
},
"translation": {
"x": 1.7361050182848192,
"y": 1.7712389543466083
}
},
"time": 5.580242334143904,
"velocity": 0.6765382506290534
},
{
"acceleration": -0.75,
"curvature": 1.3277723791886034,
"pose": {
"rotation": {
"radians": -2.556388259472481
},
"translation": {
"x": 1.6793725547228013,
"y": 1.7371132501902053
}
},
"time": 5.684077414898368,
"velocity": 0.5986619400632048
},
{
"acceleration": -0.7500000000000004,
"curvature": 1.2522343513938066,
"pose": {
"rotation": {
"radians": -2.4746323906220224
},
"translation": {
"x": 1.6285569002023208,
"y": 1.7003367067051691
}
},
"time": 5.796818899365571,
"velocity": 0.5141058267128028
},
{
"acceleration": -0.75,
"curvature": 1.0081222746647558,
"pose": {
"rotation": {
"radians": -2.4056842156976663
},
"translation": {
"x": 1.582652146662356,
"y": 1.6614627857725681
}
},
"time": 5.925996462172167,
"velocity": 0.417222654607856
},
{
"acceleration": -0.75,
"curvature": -9.19003219811453e-15,
"pose": {
"rotation": {
"radians": -2.3408110884117592
},
"translation": {
"x": 1.5000000000000098,
"y": 1.5800000000000178
}
},
"time": 6.482293334982641,
"velocity": 0.0
}
]